<?xml version="1.0" encoding="UTF-8" standalone="no"?>
<!-- Created with Inkscape (http://www.inkscape.org/) -->

<svg
   xmlns:dc="http://purl.org/dc/elements/1.1/"
   xmlns:cc="http://creativecommons.org/ns#"
   xmlns:rdf="http://www.w3.org/1999/02/22-rdf-syntax-ns#"
   xmlns:svg="http://www.w3.org/2000/svg"
   xmlns="http://www.w3.org/2000/svg"
   xmlns:sodipodi="http://sodipodi.sourceforge.net/DTD/sodipodi-0.dtd"
   xmlns:inkscape="http://www.inkscape.org/namespaces/inkscape"
   width="210mm"
   height="297mm"
   viewBox="0 0 210 297"
   version="1.1"
   id="svg5211"
   inkscape:export-filename="/home/fvz/P1.png"
   inkscape:export-xdpi="96"
   inkscape:export-ydpi="96"
   inkscape:version="0.92.1 r15371"
   sodipodi:docname="SFDOrange.svg">
  <defs
     id="defs5205">
    <filter
       style="color-interpolation-filters:sRGB;"
       inkscape:label="Drop Shadow"
       id="filter5999">
      <feFlood
         flood-opacity="0.498039"
         flood-color="rgb(0,0,0)"
         result="flood"
         id="feFlood5989" />
      <feComposite
         in="flood"
         in2="SourceGraphic"
         operator="in"
         result="composite1"
         id="feComposite5991" />
      <feGaussianBlur
         in="composite1"
         stdDeviation="2.9"
         result="blur"
         id="feGaussianBlur5993" />
      <feOffset
         dx="4"
         dy="4"
         result="offset"
         id="feOffset5995" />
      <feComposite
         in="SourceGraphic"
         in2="offset"
         operator="over"
         result="fbSourceGraphic"
         id="feComposite5997" />
      <feColorMatrix
         result="fbSourceGraphicAlpha"
         in="fbSourceGraphic"
         values="0 0 0 -1 0 0 0 0 -1 0 0 0 0 -1 0 0 0 0 1 0"
         id="feColorMatrix6001" />
      <feFlood
         id="feFlood6003"
         flood-opacity="0.498039"
         flood-color="rgb(0,0,0)"
         result="flood"
         in="fbSourceGraphic" />
      <feComposite
         in2="fbSourceGraphic"
         id="feComposite6005"
         in="flood"
         operator="in"
         result="composite1" />
      <feGaussianBlur
         id="feGaussianBlur6007"
         in="composite1"
         stdDeviation="2.9"
         result="blur" />
      <feOffset
         id="feOffset6009"
         dx="4"
         dy="4"
         result="offset" />
      <feComposite
         in2="offset"
         id="feComposite6011"
         in="fbSourceGraphic"
         operator="over"
         result="composite2" />
    </filter>
    <filter
       style="color-interpolation-filters:sRGB;"
       inkscape:label="Drop Shadow"
       id="filter6023">
      <feFlood
         flood-opacity="0.498039"
         flood-color="rgb(0,0,0)"
         result="flood"
         id="feFlood6013" />
      <feComposite
         in="flood"
         in2="SourceGraphic"
         operator="in"
         result="composite1"
         id="feComposite6015" />
      <feGaussianBlur
         in="composite1"
         stdDeviation="2.9"
         result="blur"
         id="feGaussianBlur6017" />
      <feOffset
         dx="4"
         dy="4"
         result="offset"
         id="feOffset6019" />
      <feComposite
         in="SourceGraphic"
         in2="offset"
         operator="over"
         result="composite2"
         id="feComposite6021" />
    </filter>
    <filter
       style="color-interpolation-filters:sRGB;"
       inkscape:label="Drop Shadow"
       id="filter6035">
      <feFlood
         flood-opacity="0.498039"
         flood-color="rgb(0,0,0)"
         result="flood"
         id="feFlood6025" />
      <feComposite
         in="flood"
         in2="SourceGraphic"
         operator="in"
         result="composite1"
         id="feComposite6027" />
      <feGaussianBlur
         in="composite1"
         stdDeviation="2.9"
         result="blur"
         id="feGaussianBlur6029" />
      <feOffset
         dx="4"
         dy="4"
         result="offset"
         id="feOffset6031" />
      <feComposite
         in="SourceGraphic"
         in2="offset"
         operator="over"
         result="composite2"
         id="feComposite6033" />
    </filter>
    <filter
       style="color-interpolation-filters:sRGB;"
       inkscape:label="Drop Shadow"
       id="filter6047">
      <feFlood
         flood-opacity="0.498039"
         flood-color="rgb(0,0,0)"
         result="flood"
         id="feFlood6037" />
      <feComposite
         in="flood"
         in2="SourceGraphic"
         operator="in"
         result="composite1"
         id="feComposite6039" />
      <feGaussianBlur
         in="composite1"
         stdDeviation="2.9"
         result="blur"
         id="feGaussianBlur6041" />
      <feOffset
         dx="4"
         dy="4"
         result="offset"
         id="feOffset6043" />
      <feComposite
         in="SourceGraphic"
         in2="offset"
         operator="over"
         result="composite2"
         id="feComposite6045" />
    </filter>
    <filter
       style="color-interpolation-filters:sRGB;"
       inkscape:label="Drop Shadow"
       id="filter6059">
      <feFlood
         flood-opacity="0.498039"
         flood-color="rgb(0,0,0)"
         result="flood"
         id="feFlood6049" />
      <feComposite
         in="flood"
         in2="SourceGraphic"
         operator="in"
         result="composite1"
         id="feComposite6051" />
      <feGaussianBlur
         in="composite1"
         stdDeviation="2.9"
         result="blur"
         id="feGaussianBlur6053" />
      <feOffset
         dx="4"
         dy="4"
         result="offset"
         id="feOffset6055" />
      <feComposite
         in="SourceGraphic"
         in2="offset"
         operator="over"
         result="composite2"
         id="feComposite6057" />
    </filter>
    <filter
       style="color-interpolation-filters:sRGB;"
       inkscape:label="Drop Shadow"
       id="filter6179">
      <feFlood
         flood-opacity="0.498039"
         flood-color="rgb(0,0,0)"
         result="flood"
         id="feFlood6169" />
      <feComposite
         in="flood"
         in2="SourceGraphic"
         operator="in"
         result="composite1"
         id="feComposite6171" />
      <feGaussianBlur
         in="composite1"
         stdDeviation="2.4"
         result="blur"
         id="feGaussianBlur6173" />
      <feOffset
         dx="2"
         dy="2"
         result="offset"
         id="feOffset6175" />
      <feComposite
         in="SourceGraphic"
         in2="offset"
         operator="over"
         result="composite2"
         id="feComposite6177" />
    </filter>
  </defs>
  <sodipodi:namedview
     id="base"
     pagecolor="#ffffff"
     bordercolor="#666666"
     borderopacity="1.0"
     inkscape:pageopacity="0.0"
     inkscape:pageshadow="2"
     inkscape:zoom="0.35"
     inkscape:cx="622.42233"
     inkscape:cy="526.04096"
     inkscape:document-units="mm"
     inkscape:current-layer="layer1"
     showgrid="false"
     inkscape:window-width="1280"
     inkscape:window-height="741"
     inkscape:window-x="0"
     inkscape:window-y="22"
     inkscape:window-maximized="1" />
  <metadata
     id="metadata5208">
    <rdf:RDF>
      <cc:Work
         rdf:about="">
        <dc:format>image/svg+xml</dc:format>
        <dc:type
           rdf:resource="http://purl.org/dc/dcmitype/StillImage" />
        <dc:title></dc:title>
      </cc:Work>
    </rdf:RDF>
  </metadata>
  <g
     inkscape:label="Layer 1"
     inkscape:groupmode="layer"
     id="layer1">
    <rect
       style="fill:#803300;stroke:#5f5f5f;stroke-width:1.66499996;stroke-linejoin:miter;stroke-miterlimit:4;stroke-dasharray:none;stroke-opacity:0.05263158;filter:url(#filter6059)"
       id="rect5213"
       width="146.65475"
       height="359.07736"
       x="-43.089287"
       y="-22.011906" />
    <rect
       style="fill:#aa4400;stroke:#5f5f5f;stroke-width:1.66499996;stroke-linejoin:miter;stroke-miterlimit:4;stroke-dasharray:none;stroke-opacity:0.05263157;filter:url(#filter6047)"
       id="rect5213-4"
       width="146.65475"
       height="359.07736"
       x="33.803188"
       y="-35.523994"
       transform="rotate(6.2874093)" />
    <rect
       style="fill:#d45500;stroke:#5f5f5f;stroke-width:1.66499996;stroke-linejoin:miter;stroke-miterlimit:4;stroke-dasharray:none;stroke-opacity:0.05263157;filter:url(#filter6035)"
       id="rect5213-4-9"
       width="146.65475"
       height="359.07736"
       x="99.689049"
       y="-89.408714"
       transform="rotate(23.599273,120.57191,49.367948)" />
    <rect
       style="fill:#ff6600;stroke:#5f5f5f;stroke-width:1.66499996;stroke-linejoin:miter;stroke-miterlimit:4;stroke-dasharray:none;stroke-opacity:0.05263157;filter:url(#filter6023)"
       id="rect5213-4-9-0"
       width="146.65475"
       height="359.07736"
       x="170.69894"
       y="-154.62727"
       transform="rotate(44.533097,45.035851,31.386303)" />
    <rect
       style="fill:#ff7f2a;stroke:#5f5f5f;stroke-width:1.66499984;stroke-linejoin:miter;stroke-miterlimit:4;stroke-dasharray:none;stroke-opacity:0.05263157;filter:url(#filter5999)"
       id="rect5213-4-9-0-9"
       width="146.65475"
       height="359.07736"
       x="262.98715"
       y="-235.50099"
       transform="rotate(60.399883)" />
    <text
       xml:space="preserve"
       style="font-style:normal;font-weight:normal;font-size:10.58333302px;line-height:1.25;font-family:sans-serif;letter-spacing:0px;word-spacing:0px;fill:none;fill-opacity:1;stroke:#fffff8;stroke-width:1.56500006;stroke-miterlimit:4;stroke-dasharray:none;stroke-opacity:1;filter:url(#filter6179)"
       x="28.650578"
       y="93.270882"
       id="text6063"><tspan
         sodipodi:role="line"
         id="tspan6061"
         x="28.650578"
         y="93.270882"
         style="font-style:normal;font-variant:normal;font-weight:bold;font-stretch:normal;font-size:50.79999924px;line-height:1.5;font-family:Cantarell;-inkscape-font-specification:'Cantarell Bold';fill:none;stroke:#fffff8;stroke-width:1.56500006;stroke-miterlimit:4;stroke-dasharray:none;stroke-opacity:1">S<tspan
   style="font-size:16.93333244px"
   id="tspan6183">OFTWARE</tspan></tspan><tspan
         sodipodi:role="line"
         x="28.650578"
         y="169.47087"
         style="font-style:normal;font-variant:normal;font-weight:bold;font-stretch:normal;font-size:50.79999924px;line-height:1.5;font-family:Cantarell;-inkscape-font-specification:'Cantarell Bold';fill:none;stroke:#fffff8;stroke-width:1.56500006;stroke-miterlimit:4;stroke-dasharray:none;stroke-opacity:1"
         id="tspan6065">F<tspan
   style="font-size:16.93333244px"
   id="tspan6185">REEDOM</tspan></tspan><tspan
         sodipodi:role="line"
         x="28.650578"
         y="245.67087"
         style="font-style:normal;font-variant:normal;font-weight:bold;font-stretch:normal;font-size:50.79999924px;line-height:1.5;font-family:Cantarell;-inkscape-font-specification:'Cantarell Bold';fill:none;stroke:#fffff8;stroke-width:1.56500006;stroke-miterlimit:4;stroke-dasharray:none;stroke-opacity:1"
         id="tspan6069">D<tspan
   style="font-size:16.93333244px"
   id="tspan6187">AY </tspan></tspan></text>
  </g>
</svg>
